#Data to plot the distribution of the distance between the integration site and the tip of the closest plectoneme. This data are relative to Ca=31.

86
41
77
80
32
32
126
123
158
3
164
1
159
46
130
149
3
49
116
1
156
162
82
164
155
121
7
85
0
135
134
174
147
192
35
42
5
5
133
25
42
78
96
50
66
106
0
179
2
60
0
85
25
0
73
108
1
90
83
19
156
123
113
10
36
56
0
5
7
106
51
112
129
168
159
60
2
75
37
57
8
164
40
102
154
91
94
119
78
6
95
1
62
113
127
50
7
111
179
89
169
4
92
98
161
69
86
127
139
39
79
123
157
107
65
140
11
177
2
81
87
113
62
59
158
134
121
51
152
18
51
124
89
103
172
71
128
175
106
94
70
154
148
2
58
7
116
79
114
0
177
0
73
90
144
58
8
165
56
0
50
149
109
90
133
151
102
1
65
5
63
80
70
72
4
0
135
110
145
167
75
2
84
33
165
102
1
51
138
2
66
112
150
117
158
13
3
188
86
176
110
71
128
124
0
157
7
82
177
6
3
105
53
33
138
123
52
105
63
165
4
52
55
119
2
12
54
0
72
0
0
20
69
141
67
77
42
104
54
128
138
37
68
1
180
113
170
134
37
3
4
74
2
3
0
164
79
130
28
23
174
85
99
3
50
165
0
156
155
107
11
46
154
139
61
66
0
174
137
106
105
81
165
93
179
80
51
126
1
3
1
152
79
108
165
7
142
