First column=catenation number
Second column=average bending energy

22	1.36683
23	1.43185
24	1.52409
25	1.63876
26	1.73894
27	1.84637
28	1.99011
29	2.09337
30	2.19967
31	2.21464
32	2.2732
33	2.29348
34	2.33674
35	2.39384
36	2.4291
37	2.45039
38	2.51974
